patch/PCSA00134/PCSA00134-03_650-05_06-01_00.ppk=Helldivers
patch/PCSB00116/PCSB00116-03_650-01_28-01_00.ppk=Pinball Arcade
patch/PCSB00408/PCSB00408-03_650-01_09-01_00.ppk=Dragon's Crown
patch/PCSB00444/PCSB00444-03_650-01_24-01_00.ppk=Grand Theft Auto: iFruit
patch/PCSB00527/PCSB00527-03_650-01_03-01_00.ppk=forma.8 (3.61+!) [3.63]
patch/PCSB00560/PCSB00560-03_650-01_74-01_00.ppk=Minecraft Playstation Vita Edition
patch/PCSB00583/PCSB00583-03_650-01_02-01_00.ppk=PHANTOM BREAKER BATTLE GROUND
patch/PCSB00809/PCSB00809-03_650-01_28-01_00.ppk=Crunchyroll
patch/PCSB00826/PCSB00826-03_650-01_02-01_00.ppk=Sky Force Anniversary
patch/PCSB00827/PCSB00827-03_650-01_03-01_00.ppk=Volume
patch/PCSB00861/PCSB00861-03_650-01_06-01_00.ppk=Digimon Story Cyber Sleuth
patch/PCSB00868/PCSB00868-03_610-01_01-01_00.ppk=Uncanny Valley (3.61+!) [3.61]
patch/PCSB00878/PCSB00878-03_650-01_08-01_00.ppk=Twitch
patch/PCSB00895/PCSB00895-03_630-01_03-01_00.ppk=Dino Dini's Kick Off Revival (3.61+!) [3.63]
patch/PCSB00919/PCSB00919-03_650-01_03-01_00.ppk=Crypt of the Necrodancer
patch/PCSB00953/PCSB00953-03_630-01_01-01_00.ppk=Dex (3.61+!) [3.63]
patch/PCSB00965/PCSB00965-03_630-01_01-01_00.ppk=Gem Smashers (3.61+!) [3.63]
patch/PCSB01012/PCSB01012-03_610-01_02-01_00.ppk=Steins;Gate 0 (3.61+!) [3.61]
patch/PCSB01019/PCSB01019-03_650-01_02-01_00.ppk=Root Letter (3.61+!) [3.61]
patch/PCSB01020/PCSB01020-03_610-01_02-01_00.ppk=GAROU: MARK OF THE WOLVES (3.61+!) [3.61]
patch/PCSB01021/PCSB01021-03_610-01_01-01_01.ppk=Exile's End (3.61+!) [3.61]
patch/PCSB01036/PCSB01036-03_610-01_01-01_00.ppk=Demetrios - The BIG Cynical Adventure (3.61+!) [3.61]
patch/PCSB01037/PCSB01037-03_610-01_01-01_00.ppk=Slain: Back from Hell (3.61+!) [3.61]
patch/PCSB01053/PCSB01053-03_630-01_01-01_00.ppk=Full Throttle Remastered (3.61+!) [3.63]
patch/PCSB01072/PCSB01072-03_630-01_01-01_00.ppk=Salt and Sanctuary (3.61+!) [3.63]
patch/PCSB01081/PCSB01081-03_650-01_02-01_00.ppk=Ys Origin (3.61+!) [3.63]
patch/PCSB01083/PCSB01083-03_650-01_01-01_00.ppk=Windjammers (3.61+!) [3.65]
patch/PCSB01113/PCSB01113-03_670-01_01-01_01.ppk=League of Evil (3.61+!) [3.67]
patch/PCSB01114/PCSB01114-03_650-01_01-01_00.ppk=SteamWorld Dig 2 (3.61+!) [3.65]
patch/PCSB01127/PCSB01127-03_650-01_01-01_00.ppk=Danganronpa V3: Killing Harmony (3.61+!) [3.65]
patch/PCSB01128/PCSB01128-03_650-01_02-01_00.ppk=Ys VIII: Lacrimosa of DANA (3.61+!) [3.65]
patch/PCSB01154/PCSB01154-03_650-01_05-01_00.ppk=Licky The Lucky Lives Again (3.61+!) [3.65]
patch/PCSB01157/PCSB01157-03_650-01_08-01_00.ppk=Undertale (3.61+!) [3.65]
patch/PCSB01163/PCSB01163-03_670-01_03-01_00.ppk=Secret of Mana (3.61+!) [3.67]
patch/PCSB01169/PCSB01169-03_650-01_02-01_00.ppk=Burly Men at Sea (3.61+!) [3.65]
patch/PCSB01187/PCSB01187-03_650-01_01-01_00.ppk=Alteric (3.61+!) [3.65]
patch/PCSB01188/PCSB01188-03_650-01_01-01_00.ppk=Spiral Splatter (3.61+!) [3.65]
patch/PCSB01190/PCSB01190-03_670-01_02-01_00.ppk=Reverie (3.61+!) [3.67]
patch/PCSB01202/PCSB01202-03_650-01_01-01_00.ppk=Xenon Valkyrie+ (3.61+!) [3.65]
patch/PCSB01218/PCSB01218-03_670-01_02-01_00.ppk=THE KING OF FIGHTERS '97 GLOBAL MATCH (3.61+!) [3.67]
patch/PCSB01230/PCSB01230-03_670-01_01-01_01.ppk=InkSplosion (3.61+!) [3.67]
patch/PCSB01251/PCSB01251-03_680-01_01-01_00.ppk=Super Destronaut DX (3.61+!) [3.68]
patch/PCSC00078/PCSC00078-03_650-05_06-01_00.ppk=HELLDIVERS
patch/PCSD00086/PCSD00086-03_650-05_06-01_00.ppk=HELLDIVERS (English/Korean/Chinese Ver.)
patch/PCSD00097/PCSD00097-03_650-05_06-01_00.ppk=HELLDIVERS (Chinese Ver.)
patch/PCSE00019/PCSE00019-03_650-01_09-01_00.ppk=Dragon's Crown
patch/PCSE00065/PCSE00065-03_650-01_34-01_00.ppk=The Pinball Arcade
patch/PCSE00074/PCSE00074-03_650-02_01-01_00.ppk=NicoNico
patch/PCSE00303/PCSE00303-03_650-01_28-01_00.ppk=Crunchyroll
patch/PCSE00318/PCSE00318-03_670-01_02-01_00.ppk=Rainbow Skies (3.61+!) [3.67]
patch/PCSE00348/PCSE00348-03_650-01_24-01_00.ppk=Grand Theft Auto: iFruit
patch/PCSE00491/PCSE00491-03_650-01_74-01_00.ppk=Minecraft: PlayStation Vita Edition
patch/PCSE00591/PCSE00591-03_650-01_02-01_01.ppk=Sketchcross
patch/PCSE00606/PCSE00606-03_650-01_04-01_00.ppk=Skullgirls 2nd Encore
patch/PCSE00611/PCSE00611-03_650-01_10-01_00.ppk=SnagFilms: Watch Free Movies & TV Shows
patch/PCSE00640/PCSE00640-03_650-01_05-01_00.ppk=Shovel Knight
patch/PCSE00669/PCSE00669-03_610-01_01-01_00.ppk=Spider: Rite of the Shrouded Moon (3.61+!) [3.61]
patch/PCSE00738/PCSE00738-03_650-01_03-01_00.ppk=Organ Trail Complete Edition
patch/PCSE00756/PCSE00756-03_650-01_01-01_01.ppk=VA-11 HALL-A (3.61+!) [3.65]
patch/PCSE00760/PCSE00760-03_650-01_04-01_00.ppk=Volume
patch/PCSE00788/PCSE00788-03_650-01_08-01_00.ppk=Twitch
patch/PCSE00797/PCSE00797-03_650-01_03-01_00.ppk=Forma.8 (3.61+!) [3.63]
patch/PCSE00806/PCSE00806-03_650-01_03-01_01.ppk=Crypt of the Necrodancer
patch/PCSE00822/PCSE00822-03_610-01_01-01_00.ppk=Uncanny Valley (3.61+!) [3.61]
patch/PCSE00865/PCSE00865-03_650-01_02-01_00.ppk=Sky Force Anniversary
patch/PCSE00870/PCSE00870-03_630-01_01-01_00.ppk=Spheroids (3.61+!) [3.63]
patch/PCSE00901/PCSE00901-03_630-01_01-01_00.ppk=Dex (3.61+!) [3.63]
patch/PCSE00903/PCSE00903-03_650-03_20-01_00.ppk=Sword Art Online: Hollow Realization (3.61+!) [3.61]
patch/PCSE00913/PCSE00913-03_650-01_03-01_00.ppk=Volgarr the Viking (3.61+!) [3.61]
patch/PCSE00914/PCSE00914-03_650-01_02-01_00.ppk=99Vidas (3.61+!) [3.65]
patch/PCSE00919/PCSE00919-03_650-01_15-01_01.ppk=Darkest Dungeon (3.61+!) [3.61]
patch/PCSE00928/PCSE00928-03_610-01_01-01_00.ppk=Fate/EXTELLA: The Umbral Star (3.61+!) [3.61]
patch/PCSE00940/PCSE00940-03_630-01_03-01_01.ppk=Toukiden 2 (3.61+!) [3.63]
patch/PCSE00942/PCSE00942-03_630-01_03-01_00.ppk=Supermagical (3.61+!) [3.63]
patch/PCSE00949/PCSE00949-03_610-01_02-01_00.ppk=Steins;Gate 0 (3.61+!) [3.61]
patch/PCSE00950/PCSE00950-03_650-01_05-01_00.ppk=Shantae: Half-Genie Hero (3.61+!) [3.63]
patch/PCSE00955/PCSE00955-03_650-01_09-01_00.ppk=Fallen Legion: Flames of Rebellion (3.61+!) [3.63]
patch/PCSE00956/PCSE00956-03_670-01_04-01_00.ppk=Mercenary Kings Reloaded (3.61+!) [3.67]
patch/PCSE00958/PCSE00958-03_610-01_02-01_00.ppk=GAROU: MARK OF THE WOLVES (3.61+!) [3.61]
patch/PCSE00963/PCSE00963-03_610-01_01-01_00.ppk=Root Letter (3.61+!) [3.61]
patch/PCSE00964/PCSE00964-03_630-01_01-01_00.ppk=Talisman: Digital Edition (3.61+!) [3.63]
patch/PCSE00971/PCSE00971-03_650-01_02-01_00.ppk=DEADBOLT (3.61+!) [3.65]
patch/PCSE00974/PCSE00974-03_610-01_02-01_00.ppk=Slain: Back from Hell (3.61+!) [3.61]
patch/PCSE01000/PCSE01000-03_630-01_01-01_00.ppk=Full Throttle Remastered (3.61+!) [3.63]
patch/PCSE01005/PCSE01005-03_610-01_01-01_00.ppk=Demetrios - The BIG Cynical Adventure (3.61+!) [3.61]
patch/PCSE01006/PCSE01006-03_630-01_01-01_00.ppk=Zero Escape: The Nonary Games (3.61+!) [3.63]
patch/PCSE01010/PCSE01010-03_630-01_01-01_00.ppk=Lichtspeer (3.61+!) [3.63]
patch/PCSE01016/PCSE01016-03_630-01_09-01_00.ppk=Siralim 2 (3.61+!) [3.63]
patch/PCSE01019/PCSE01019-03_650-01_01-01_00.ppk=Bodycheck (3.61+!) [3.65]
patch/PCSE01021/PCSE01021-03_650-01_02-01_00.ppk=The Deer God (3.61+!) [3.63]
patch/PCSE01022/PCSE01022-03_650-01_01-01_00.ppk=Chaos;Child (3.61+!) [3.65]
patch/PCSE01023/PCSE01023-03_650-01_02-01_00.ppk=Salt and Sanctuary (3.61+!) [3.63]
patch/PCSE01026/PCSE01026-03_650-01_01-01_00.ppk=GOD WARS Future Past (3.61+!) [3.63]
patch/PCSE01031/PCSE01031-03_680-01_02-01_00.ppk=Chasm (3.61+!) [3.68]
patch/PCSE01032/PCSE01032-03_650-01_01-01_00.ppk=Windjammers (3.61+!) [3.65]
patch/PCSE01033/PCSE01033-03_650-01_02-01_00.ppk=Ys Origin (3.61+!) [3.63]
patch/PCSE01038/PCSE01038-03_650-01_03-01_00.ppk=Vostok Inc. (3.61+!) [3.65]
patch/PCSE01044/PCSE01044-03_630-01_01-01_00.ppk=Atelier Firis ~The Alchemist and the Mysterious Journey~ (3.61+!) [3.63]
patch/PCSE01051/PCSE01051-03_650-01_01-01_00.ppk=Factotum 90 (3.61+!) [3.65]
patch/PCSE01056/PCSE01056-03_650-01_01-01_00.ppk=Papers, Please (3.61+!) [3.65]
patch/PCSE01071/PCSE01071-03_650-02_03-01_00.ppk=Accel World VS Sword Art Online (3.61+!) [3.65]
patch/PCSE01074/PCSE01074-03_650-01_03-01_01.ppk=Plague Road (3.61+!) [3.63]
patch/PCSE01085/PCSE01085-03_670-01_01-01_00.ppk=League of Evil (3.61+!) [3.67]
patch/PCSE01096/PCSE01096-03_670-01_01-01_00.ppk=Bit Dungeon Plus (3.61+!) [3.67]
patch/PCSE01098/PCSE01098-03_650-01_02-01_00.ppk=Still Time (3.61+!) [3.65]
patch/PCSE01100/PCSE01100-03_650-01_01-01_00.ppk=Danganronpa V3: Killing Harmony (3.61+!) [3.65]
patch/PCSE01101/PCSE01101-03_650-01_01-01_00.ppk=SteamWorld Dig 2 (3.61+!) [3.65]
patch/PCSE01103/PCSE01103-03_650-01_02-01_00.ppk=Ys VIII: Lacrimosa of DANA (3.61+!) [3.65]
patch/PCSE01104/PCSE01104-03_650-01_02-01_00.ppk=Touhou Kobuto V: Burst Battle (3.61+!) [3.65]
patch/PCSE01112/PCSE01112-03_650-01_01-01_00.ppk=The Count Lucanor (3.61+!) [3.65]
patch/PCSE01113/PCSE01113-03_650-01_01-01_00.ppk=SAMURAI SHODOWN V SPECIAL (3.61+!) [3.65]
patch/PCSE01116/PCSE01116-03_650-01_08-01_00.ppk=Undertale (3.61+!) [3.65]
patch/PCSE01135/PCSE01135-03_650-01_01-01_00.ppk=Burly Men at Sea (3.61+!) [3.65]
patch/PCSE01139/PCSE01139-03_650-01_01-01_00.ppk=Yomawari: Midnight Shadows (3.61+!) [3.65]
patch/PCSE01141/PCSE01141-03_650-01_01-01_00.ppk=Demon Gaze II (3.61+!) [3.65]
patch/PCSE01146/PCSE01146-03_650-01_01-01_01.ppk=Super Hydorah (3.61+!) [3.65]
patch/PCSE01153/PCSE01153-03_670-01_03-01_00.ppk=Secret of Mana (3.61+!) [3.67]
patch/PCSE01158/PCSE01158-03_650-01_01-01_00.ppk=Mecho Tales (3.61+!) [3.65]
patch/PCSE01171/PCSE01171-03_650-01_05-01_00.ppk=Digimon Story Cyber Sleuth: Hacker's Memory (3.61+!) [3.65]
patch/PCSE01172/PCSE01172-03_650-01_01-01_00.ppk=Alteric (3.61+!) [3.65]
patch/PCSE01175/PCSE01175-03_650-01_01-01_00.ppk=Spiral Splatter (3.61+!) [3.65]
patch/PCSE01177/PCSE01177-03_650-01_05-01_00.ppk=Iconoclasts (3.61+!) [3.65]
patch/PCSE01179/PCSE01179-03_670-01_01-01_00.ppk=The Lost Child (3.61+!) [3.67]
patch/PCSE01191/PCSE01191-03_650-01_01-01_00.ppk=Xenon Valkyrie+ (3.61+!) [3.65]
patch/PCSE01198/PCSE01198-03_650-01_02-01_00.ppk=Rogue Aces (3.61+!) [3.65]
patch/PCSE01219/PCSE01219-03_670-01_01-01_00.ppk=Deep Ones (3.61+!) [3.67]
patch/PCSE01221/PCSE01221-03_670-01_03-01_00.ppk=Metropolis: Lux Obscura (3.61+!) [3.67]
patch/PCSE01229/PCSE01229-03_670-01_02-01_00.ppk=Reverie (3.61+!) [3.67]
patch/PCSE01232/PCSE01232-03_670-01_01-01_00.ppk=Cosmic Star Heroine (3.61+!) [3.67]
patch/PCSE01235/PCSE01235-03_670-01_02-01_00.ppk=Stardew Valley (3.61+!) [3.67]
patch/PCSE01237/PCSE01237-03_670-01_01-01_01.ppk=InkSplosion (3.61+!) [3.67]
patch/PCSE01251/PCSE01251-03_670-01_01-01_00.ppk=Riddled Corpses EX (3.61+!) [3.67]
patch/PCSE01259/PCSE01259-03_670-01_01-01_00.ppk=Muv-Luv (3.61+!) [3.67]
patch/PCSE01260/PCSE01260-03_670-01_02-01_00.ppk=Muv-Luv Alternative (3.61+!) [3.67]
patch/PCSE01262/PCSE01262-03_670-01_01-01_00.ppk=Bloodstained: Curse of the Moon (3.61+!) [3.67]
patch/PCSE01263/PCSE01263-03_680-01_01-01_00.ppk=Super Destronaut DX (3.61+!) [3.68]
patch/PCSE01266/PCSE01266-03_680-01_02-01_01.ppk=Waking Violet (3.61+!) [3.68]
patch/PCSF00465/PCSF00465-03_650-05_06-01_00.ppk=Helldivers
patch/PCSG00141/PCSG00141-03_650-05_27-01_00.ppk=Phantasy Star Online 2
patch/PCSG00187/PCSG00187-03_650-01_09-01_00.ppk=Dragon's Crown
patch/PCSG00211/PCSG00211-03_650-01_31-01_00.ppk=Romance of the Three Kingdoms XII: Taisenban
patch/PCSG00277/PCSG00277-03_650-01_04-01_00.ppk=Phantom Breaker: Battle Grounds
patch/PCSG00302/PCSG00302-03_650-01_74-01_00.ppk=Minecraft: PlayStation Vita Edition
patch/PCSG00340/PCSG00340-03_670-01_04-01_00.ppk=Manga Kakeru (3.61+!) [3.67]
patch/PCSG00350/PCSG00350-03_650-01_85-01_00.ppk=Monster Hunter Frontier G
patch/PCSG00516/PCSG00516-03_650-01_05-01_00.ppk=Digimon Story Cyber Sleuth
patch/PCSG00567/PCSG00567-03_650-01_02-01_00.ppk=YU-NO: Konoyo no Hate de Koi o Utau Shoujo (3.61+!) [3.63]
patch/PCSG00573/PCSG00573-03_650-01_03-01_00.ppk=The Lost Child (3.61+!) [3.65]
patch/PCSG00581/PCSG00581-03_650-01_13-01_00.ppk=Minna de Spelunker Z
patch/PCSG00583/PCSG00583-03_650-01_01-01_01.ppk=Skullgirls 2nd Encore
patch/PCSG00600/PCSG00600-03_610-01_03-01_00.ppk=Fate/EXTELLA (3.61+!) [3.61]
patch/PCSG00685/PCSG00685-03_650-01_05-01_00.ppk=DEEMO ~The Last Recital~
patch/PCSG00691/PCSG00691-03_650-01_31-01_02.ppk=Jikkyou Powerful Pro Yakyuu: Success Special
patch/PCSG00748/PCSG00748-03_650-01_11-01_00.ppk=Jikkyou Powerful Pro Yakyuu 2016
patch/PCSG00750/PCSG00750-03_650-01_50-01_00.ppk=Kai-ri-Sei Million Arthur
patch/PCSG00752/PCSG00752-03_650-01_06-01_00.ppk=Touhou Soujinengi V
patch/PCSG00761/PCSG00761-03_650-01_02-01_00.ppk=Kono Aozora ni Yakusoku o
patch/PCSG00781/PCSG00781-03_610-01_07-01_07.ppk=RecoLove Blue Ocean (3.61+!) [3.61]
patch/PCSG00782/PCSG00782-03_610-01_07-01_07.ppk=RecoLove: Gold Beach (3.61+!) [3.61]
patch/PCSG00788/PCSG00788-03_650-01_04-01_00.ppk=Crypt of the Necrodancer
patch/PCSG00793/PCSG00793-03_610-01_05-01_00.ppk=SD Gundam G Generation Genesis (Require External Data DLC) (3.61+!) [3.61]
patch/PCSG00803/PCSG00803-03_650-01_31-01_00.ppk=Nobunaga's Ambition 201X
patch/PCSG00814/PCSG00814-03_630-01_02-01_00.ppk=Bentou no Subarashisa o Ano 2-Tabi 3-Tabi (3.61+!) [3.63]
patch/PCSG00820/PCSG00820-03_650-01_09-01_00.ppk=Dragon Quest Heroes II
patch/PCSG00832/PCSG00832-03_650-01_19-01_00.ppk=World Trigger: Smash Borders
patch/PCSG00834/PCSG00834-03_610-01_02-01_00.ppk=Toukiden 2 Free Alliances Version / Co-Op Battle Version (3.61+!) [3.61]
patch/PCSG00837/PCSG00837-03_650-01_03-01_00.ppk=Bunny Must Die: Chelsea and the 7Devils
patch/PCSG00841/PCSG00841-03_650-01_05-01_00.ppk=Dungeon Travelers 2-2: Yamiochi no Otome to Hajimari no Sho (3.61+!) [3.63]
patch/PCSG00842/PCSG00842-03_650-01_03-01_00.ppk=Damascus Gear: Saikyou Exodus (3.61+!) [3.63]
patch/PCSG00865/PCSG00865-03_610-01_02-01_01.ppk=Idol Death Game TV (3.61+!) [3.61]
patch/PCSG00868/PCSG00868-03_650-03_22-01_00.ppk=Sword Art Online: Hollow Realization (3.61+!) [3.61]
patch/PCSG00870/PCSG00870-03_650-01_02-01_01.ppk=Romancing SaGa 2
patch/PCSG00877/PCSG00877-03_610-01_04-01_00.ppk=Neo ATLAS 1469 (3.61+!) [3.61]
patch/PCSG00883/PCSG00883-03_630-01_01-01_00.ppk=Zero Escape: 9 Jikan 9 nin 9 no Tobira Zennin Shibo Dos Double Pack (3.61+!) [3.63]
patch/PCSG00898/PCSG00898-03_610-01_05-01_00.ppk=Divine Prison Tower: Mary Skelter Collector's Edition (3.61+!) [3.61]
patch/PCSG00899/PCSG00899-03_610-01_01-01_00.ppk=Tokyo Tattoo Girls (3.61+!) [3.61]
patch/PCSG00908/PCSG00908-03_650-02_01-01_00.ppk=Saki: Zenkoku-hen Plus (3.61+!) [3.63]
patch/PCSG00924/PCSG00924-03_650-01_04-01_00.ppk=Shoujo to Dragon: Genjuu Keiyaku Cryptract
patch/PCSG00929/PCSG00929-03_650-01_10-01_00.ppk=Atelier Firis ~The Alchemist and the Mysterious Journey~ (3.61+!) [3.61]
patch/PCSG00932/PCSG00932-03_650-01_02-01_00.ppk=Itadaki Street: Dragon Quest & Final Fantasy 30th Anniversary (3.61+!) [3.63]
patch/PCSG00936/PCSG00936-03_650-01_03-01_00.ppk=Danganronpa V3: Killing Harmony (3.61+!) [3.63]
patch/PCSG00939/PCSG00939-03_650-01_01-01_00.ppk=Omega Labyrinth Z (3.61+!) [3.63]
patch/PCSG00947/PCSG00947-03_610-01_02-01_00.ppk=Macross Delta Scramble (3.61+!) [3.61]
patch/PCSG00951/PCSG00951-03_650-01_22-01_00.ppk=Nep-Nep Connect: Chaos Chanpuru (3.61+!) [3.65]
patch/PCSG00954/PCSG00954-03_650-01_05-01_00.ppk=Sengoku Musou: Sanada Maru
patch/PCSG00957/PCSG00957-03_630-01_01-01_00.ppk=Garou: Mark of the Wolves (3.61+!) [3.63]
patch/PCSG00964/PCSG00964-03_650-01_01-01_00.ppk=UNDER NIGHT IN-BIRTH Exe:Late[st] (3.61+!) [3.63]
patch/PCSG00972/PCSG00972-03_670-01_06-01_00.ppk=METAL MAX Xeno (3.61+!) [3.67]
patch/PCSG00974/PCSG00974-03_650-01_03-01_00.ppk=Super Robot Taisen V (Premium Anime Song & Sound Edition)
patch/PCSG00983/PCSG00983-03_650-01_03-01_00.ppk=Sengoku Shura SOUL (3.61+!) [3.61]
patch/PCSG00985/PCSG00985-03_650-01_29-01_00.ppk=Touhou Genso Wanderer (3.61+!) [3.61]
patch/PCSG00986/PCSG00986-03_650-01_02-01_00.ppk=Nights of Azure 2: Bride of the New Moon (3.61+!) [3.65]
patch/PCSG00987/PCSG00987-03_650-01_05-01_01.ppk=Blue Reflection: Maboroshi ni Mau - Shoujo no Ken (3.61+!) [3.63]
patch/PCSG00996/PCSG00996-03_630-01_01-01_00.ppk=Kono Yo no Hate de Koi wo Utau Shoujo YU-NO Original NEC PC-9800 Series Version (3.61+!) [3.63]
patch/PCSG01001/PCSG01001-03_650-01_02-01_00.ppk=Side Kicks!
patch/PCSG01005/PCSG01005-03_650-01_30-01_01.ppk=Shiin (3.61+!) [3.63]
patch/PCSG01013/PCSG01013-03_650-01_02-01_00.ppk=Gun Gun Pixies (3.61+!) [3.63]
patch/PCSG01027/PCSG01027-03_650-01_04-01_00.ppk=Gundemoniums (3.61+!) [3.65]
patch/PCSG01028/PCSG01028-03_650-01_01-01_00.ppk=Kono Subarashii Sekai ni Shukufuku wo! Kono Yokubukai Game ni Shinpan wo! (3.61+!) [3.65]
patch/PCSG01030/PCSG01030-03_670-01_03-01_00.ppk=Persona 5: Dancing Star Night (3.61+!) [3.67]
patch/PCSG01031/PCSG01031-03_670-01_03-01_00.ppk=Persona 3: Dancing Moon Night (3.61+!) [3.67]
patch/PCSG01045/PCSG01045-03_650-01_03-01_00.ppk=Jikkyou Powerful Pro Yakyuu Championship 2017 (3.61+!) [3.65]
patch/PCSG01071/PCSG01071-03_650-01_02-01_00.ppk=PHOTON³ (3.61+!) [3.65]
patch/PCSG01072/PCSG01072-03_650-01_01-01_02.ppk=VA-11 Hall-A (3.61+!) [3.65]
patch/PCSG01073/PCSG01073-03_650-01_06-01_00.ppk=Gintama Rumble (3.61+!) [3.65]
patch/PCSG01076/PCSG01076-03_650-01_02-01_00.ppk=Oretachi no Sekai wa Owatteiru (3.61+!) [3.65]
patch/PCSG01079/PCSG01079-03_670-01_02-01_00.ppk=Utawarerumono: Chiriyuku Mono e no Komoriuta (3.61+!) [3.67]
patch/PCSG01080/PCSG01080-03_650-01_06-01_00.ppk=Yomawari: Midnight Shadows (3.61+!) [3.65]
patch/PCSG01089/PCSG01089-03_650-01_02-01_00.ppk=A Certain Magical Virtual-On (3.61+!)
patch/PCSG01091/PCSG01091-03_670-01_06-01_00.ppk=Fate/EXTELLA LINK (3.61+!) [3.67]
patch/PCSG01093/PCSG01093-03_650-01_01-01_00.ppk=Kono Subarashii Sekai ni Shukufuku wo! ATTACK OF THE DESTROYER (3.61+!) [3.65]
patch/PCSG01100/PCSG01100-03_670-01_01-01_00.ppk=Doukoku Soshite... (3.61+!) [3.67]
patch/PCSG01102/PCSG01102-03_670-01_05-01_00.ppk=Attack on Titan 2 (3.61+!) [3.67]
patch/PCSG01103/PCSG01103-03_650-01_03-01_00.ppk=Tokyo Clanpool (3.61+!) [3.65]
patch/PCSG01107/PCSG01107-03_650-01_01-01_00.ppk=Nora To Oujo To Noraneko Heart (3.61+!) [3.65]
patch/PCSG01109/PCSG01109-03_650-01_01-01_00.ppk=Onigiri (3.61+!) [3.65]
patch/PCSG01112/PCSG01112-03_650-01_08-01_00.ppk=Undertale (3.61+!) [3.65]
patch/PCSG01113/PCSG01113-03_680-01_02-01_00.ppk=Zanki Zero (3.61+!) [3.68]
patch/PCSG01116/PCSG01116-03_650-01_05-01_00.ppk=Atelier Lydie & Suelle: Fushigi na Kaiga no Renkinjutsushi (3.61+!) [3.65]
patch/PCSG01121/PCSG01121-03_650-01_03-01_00.ppk=Seiken Densetsu 2: Secret of Mana (3.61+!) [3.65]
patch/PCSG01129/PCSG01129-03_670-01_04-01_00.ppk=Super Robot Taisen X (Premium Anime Song & Sound Edition)
patch/PCSG01147/PCSG01147-03_670-01_01-01_00.ppk=Reverie (3.61+!) [3.67]
patch/PCSG01149/PCSG01149-03_650-01_01-01_00.ppk=Grisaia Phantom Trigger 01 & 02 (3.61+!) [3.65]
patch/PCSG01157/PCSG01157-03_670-01_01-01_00.ppk=Harukanaru Toki no Naka de Ultimate (3.61+!) [3.67]
patch/PCSG01163/PCSG01163-03_670-01_02-01_00.ppk=Anata no Shikihime Kyoudoutan (3.61+!) [3.67]
patch/PCSG01164/PCSG01164-03_670-01_06-01_00.ppk=Jikkyou Powerful Pro Yakyuu 2018 (3.61+!) [3.67]
patch/PCSG01183/PCSG01183-03_670-01_03-01_00.ppk=Memories Off -Innocent Fille- (3.61+!) [3.67]
patch/PCSG01188/PCSG01188-03_670-01_01-01_00.ppk=THE KING OF FIGHTERS '97 GLOBAL MATCH (3.61+!) [3.67]
patch/PCSG01189/PCSG01189-03_670-01_02-01_00.ppk=Infinita Strada Hana (3.61+!) [3.67]
patch/PCSG01200/PCSG01200-03_680-01_02-01_00.ppk=Dungeon Hunter 5 (3.61+!) [3.68]
patch/PCSG01219/PCSG01219-03_680-01_01-01_00.ppk=Jikkyou Powerful Pro Yakyuu Championship 2018 (3.61+!) [3.68]
patch/PCSG80001/PCSG80001-03_650-03_60-01_00.ppk=NicoNico
patch/PCSH00050/PCSH00050-03_650-01_09-01_00.ppk=Dragon's Crown
patch/PCSH00109/PCSH00109-03_650-01_68-01_00.ppk=Monster Hunter Frontier G / Monster Hunter Frontier Z
patch/PCSH00200/PCSH00200-03_650-01_08-01_00.ppk=Twitch
patch/PCSH00223/PCSH00223-03_610-01_03-01_00.ppk=WORLD OF FINAL FANTASY (3.61+!) [3.61]
patch/PCSH00241/PCSH00241-03_610-01_05-01_00.ppk=SD GUNDAM G GENERATION GENESIS (3.61+!) [3.61]
patch/PCSH00242/PCSH00242-03_610-01_05-01_00.ppk=SD GUNDAM G GENERATION GENESIS English Ver. (3.61+!) [3.61]
patch/PCSH00266/PCSH00266-03_650-03_20-01_00.ppk=Sword Art Online -Hollow Realization- (3.61+!) [3.61]
patch/PCSH00292/PCSH00292-03_610-01_04-01_00.ppk=Toukiden 2 (3.61+!) [3.61]
patch/PCSH00298/PCSH00298-03_650-01_03-01_00.ppk=Dragon Quest Heroes II
patch/PCSH00299/PCSH00299-03_610-01_01-01_00.ppk=Fate/EXTELLA (3.61+!) [3.61]
patch/PCSH00308/PCSH00308-03_650-01_02-01_00.ppk=ROMANCE OF THE THREE KINGDOMS XIII: Fame and Strategy (3.61+!) [3.63]
patch/PCSH10001/PCSH10001-03_650-01_03-01_00.ppk=Super Robot Wars V (English Version) (3.61+!) [3.63]
patch/PCSH10004/PCSH10004-03_650-01_03-01_00.ppk=Super Robot Wars V (Chinese Version) (3.61+!) [3.63]
patch/PCSH10019/PCSH10019-03_650-01_01-01_00.ppk=Radio Hammer Station (3.61+!) [3.65]
patch/PCSH10024/PCSH10024-03_650-01_01-01_01.ppk=GOD WARS Future Past (Chinese Ver.) (3.61+!) [3.63]
patch/PCSH10026/PCSH10026-03_630-01_01-01_00.ppk=Atelier Firis ~The Alchemist and the Mysterious Journey~ (3.61+!) [3.63]
patch/PCSH10027/PCSH10027-03_630-01_01-01_00.ppk=Toukiden 2 Free Alliances Version (3.61+!) [3.63]
patch/PCSH10037/PCSH10037-03_630-01_03-01_00.ppk=MUSOU Stars (3.61+!) [3.63]
patch/PCSH10038/PCSH10038-03_650-02_03-01_00.ppk=Accel World vs Sword Art Online: Millennium Twilight (3.61+!) [3.63]
patch/PCSH10044/PCSH10044-03_650-01_01-01_00.ppk=Omega Labyrinth Z (3.61+!) [3.65]
patch/PCSH10051/PCSH10051-03_650-01_01-01_00.ppk=Danganronpa V3: Killing Harmony (3.61+!) [3.65]
patch/PCSH10058/PCSH10058-03_650-01_02-01_01.ppk=MUSYNC (3.61+!) [3.65]
patch/PCSH10059/PCSH10059-03_650-01_05-01_00.ppk=Digimon Story Cyber Sleuth Hacker's Memory (Chinese Ver.) (3.61+!) [3.65]
patch/PCSH10065/PCSH10065-03_650-01_01-01_00.ppk=FORTUNE STREET DRAGON QUEST ＆ FINAL FANTASY 30th ANNIVERSARY (3.61+!)
patch/PCSH10067/PCSH10067-03_670-01_03-01_00.ppk=Secret of Mana (3.61+!) [3.67]
patch/PCSH10068/PCSH10068-03_650-01_02-01_01.ppk=The Lost Child (3.61+!) [3.65]
patch/PCSH10075/PCSH10075-03_670-01_02-01_00.ppk=A Certain Magical Virtual-On (3.61+!) [3.67]
patch/PCSH10078/PCSH10078-03_650-01_01-01_00.ppk=Unepic (English/Chinese/Korean/Japanese/Russian Ver.) (3.61+!) [3.65]
patch/PCSH10089/PCSH10089-03_670-01_04-01_00.ppk=SUPER ROBOT WARS X (Chinese/Korean Ver.) (3.61+!) [3.67]
patch/PCSH10100/PCSH10100-03_670-01_02-01_00.ppk=Metal Max Xeno (3.61+!) [3.67]
patch/PCSH10116/PCSH10116-03_670-01_01-01_00.ppk=InkSplosion (English/Chinese/Korean/Japanese Ver.) (3.61+!) [3.67]
