PCSB00527/PCSB00527-03_630-01_00-01_00.ppk=forma.8 (3.61+!) [3.63]
PCSB00839/PCSB00839-03_680-01_00-01_01.ppk=Roundabout (3.61+!) [3.65]
PCSB00868/PCSB00868-03_610-01_00-01_00.ppk=Uncanny Valley (3.61+!) [3.61]
PCSB00895/PCSB00895-03_630-01_00-01_02.ppk=Dino Dini's Kick Off Revival (3.61+!) [3.63]
PCSB00910/PCSB00910-03_610-01_00-01_01.ppk=Neon Chrome (3.61+!) [3.61]
PCSB00920/PCSB00920-03_610-01_00-01_04.ppk=Bridge Constructor (3.61+!) [3.61]
PCSB00934/PCSB00934-03_610-01_00-01_02.ppk=Space Overlords (3.61+!) [3.61]
PCSB00944/PCSB00944-03_650-01_00-01_01.ppk=Energy Cycle (3.61+!) [3.65]
PCSB00945/PCSB00945-03_650-01_00-01_00.ppk=Energy Balance (3.61+!) [3.65]
PCSB00953/PCSB00953-03_630-01_00-01_02.ppk=Dex (3.61+!) [3.63]
PCSB00954/PCSB00954-03_630-01_00-01_02.ppk=Shu (3.61+!) [3.63]
PCSB00965/PCSB00965-03_630-01_00-01_04.ppk=Gem Smashers (3.61+!) [3.63]
PCSB00969/PCSB00969-03_610-01_00-01_01.ppk=Xenoraid (3.61+!) [3.61]
PCSB01012/PCSB01012-03_610-01_00-01_01.ppk=Steins;Gate 0 (3.61+!) [3.61]
PCSB01019/PCSB01019-03_610-01_00-01_01.ppk=Root Letter (3.61+!) [3.61]
PCSB01020/PCSB01020-03_610-01_00-01_00.ppk=GAROU: MARK OF THE WOLVES (3.61+!) [3.61]
PCSB01021/PCSB01021-03_610-01_00-01_00.ppk=Exile's End (3.61+!) [3.61]
PCSB01024/PCSB01024-03_610-01_00-01_00.ppk=Tokyo Twilight Ghost Hunters: Daybreak Special Gigs (3.61+!) [3.61]
PCSB01036/PCSB01036-03_610-01_00-01_02.ppk=Demetrios - The BIG Cynical Adventure (3.61+!) [3.61]
PCSB01037/PCSB01037-03_610-01_00-01_01.ppk=Slain: Back from Hell (3.61+!) [3.61]
PCSB01039/PCSB01039-03_630-01_00-01_01.ppk=Touhou Genso Wanderer (3.61+!) [3.63]
PCSB01041/PCSB01041-03_650-01_00-01_01.ppk=The Bard's Tale: Remastered and Resnarkled (3.61+!) [3.65]
PCSB01048/PCSB01048-03_610-01_00-01_01.ppk=Hue (3.61+!) [3.61]
PCSB01051/PCSB01051-03_630-01_00-01_02.ppk=DYING: Reborn (3.61+!) [3.63]
PCSB01053/PCSB01053-03_630-01_00-01_01.ppk=Full Throttle Remastered (3.61+!) [3.63]
PCSB01055/PCSB01055-03_610-01_00-01_00.ppk=Wanted Corp. (3.61+!) [3.61]
PCSB01059/PCSB01059-03_650-01_00-01_00.ppk=Mary Skelter: Nightmares (3.61+!) [3.65]
PCSB01060/PCSB01060-03_630-01_00-01_01.ppk=Period Cube ~Shackles of Amadeus~ (3.61+!) [3.63]
PCSB01062/PCSB01062-03_630-01_00-01_00.ppk=Tokyo Xanadu (3.61+!) [3.63]
PCSB01068/PCSB01068-03_630-01_00-01_01.ppk=Oceanhorn - Monster of Uncharted Seas (3.61+!) [3.63]
PCSB01072/PCSB01072-03_630-01_00-01_01.ppk=Salt and Sanctuary (3.61+!) [3.63]
PCSB01074/PCSB01074-03_650-01_00-01_01.ppk=Sokoban Next (3.61+!) [3.65]
PCSB01080/PCSB01080-03_630-01_00-01_00.ppk=Farming Simulator 18 (3.61+!) [3.63]
PCSB01081/PCSB01081-03_630-01_00-01_00.ppk=Ys Origin (3.61+!) [3.63]
PCSB01083/PCSB01083-03_650-01_00-01_00.ppk=Windjammers (3.61+!) [3.65]
PCSB01085/PCSB01085-03_630-01_00-01_01.ppk=Berserk and the Band of the Hawk (3.61+!) [3.63]
PCSB01092/PCSB01092-03_650-01_00-01_01.ppk=Bad Apple Wars (3.61+!) [3.65]
PCSB01095/PCSB01095-03_630-01_00-01_00.ppk=A Rose in the Twilight (3.61+!) [3.63]
PCSB01106/PCSB01106-03_650-01_00-01_02.ppk=Twin Robots (3.61+!) [3.65]
PCSB01108/PCSB01108-03_630-01_00-01_01.ppk=Blasting Agent: Ultimate Edition (3.61+!) [3.63]
PCSB01113/PCSB01113-03_670-01_00-01_05.ppk=League of Evil (3.61+!) [3.67]
PCSB01114/PCSB01114-03_650-01_00-01_00.ppk=SteamWorld Dig 2 (3.61+!) [3.65]
PCSB01121/PCSB01121-03_680-01_00-01_00.ppk=Chasm (3.61+!) [3.68]
PCSB01127/PCSB01127-03_650-01_00-01_01.ppk=Danganronpa V3: Killing Harmony (3.61+!) [3.65]
PCSB01128/PCSB01128-03_650-01_00-01_01.ppk=Ys VIII: Lacrimosa of DANA (3.61+!) [3.65]
PCSB01140/PCSB01140-03_650-01_00-01_01.ppk=Save the Ninja Clan (3.61+!) [3.65]
PCSB01141/PCSB01141-03_650-01_00-01_00.ppk=NeverEnd (3.61+!) [3.65]
PCSB01154/PCSB01154-03_650-01_00-01_01.ppk=Licky The Lucky Lives Again (3.61+!) [3.65]
PCSB01155/PCSB01155-03_650-01_00-01_02.ppk=My Name is Mayo (3.61+!) [3.63]
PCSB01157/PCSB01157-03_650-01_00-01_00.ppk=Undertale (3.61+!) [3.65]
PCSB01158/PCSB01158-03_650-01_00-01_00.ppk=Squareboy vs Bullies: Arena Edition (3.61+!) [3.65]
PCSB01163/PCSB01163-03_670-01_00-01_00.ppk=Secret of Mana (3.61+!) [3.67]
PCSB01169/PCSB01169-03_650-01_00-01_00.ppk=Burly Men at Sea (3.61+!) [3.65]
PCSB01173/PCSB01173-03_650-01_00-01_00.ppk=99Vidas (3.61+!) [3.65]
PCSB01179/PCSB01179-03_650-01_00-01_00.ppk=Volgarr the Viking (3.61+!) [3.65]
PCSB01183/PCSB01183-03_650-01_00-01_00.ppk=DIGIMON STORY: CYBER SLEUTH - HACKER'S MEMORY (3.61+!) [3.65]
PCSB01184/PCSB01184-03_650-01_00-01_01.ppk=36 Fragments of Midnight (3.61+!) [3.65]
PCSB01185/PCSB01185-03_670-01_00-01_00.ppk=Pic-a-Pix Color (3.61+!) [3.67]
PCSB01187/PCSB01187-03_650-01_00-01_01.ppk=Alteric (3.61+!) [3.65]
PCSB01188/PCSB01188-03_650-01_00-01_01.ppk=Spiral Splatter (3.61+!) [3.65]
PCSB01190/PCSB01190-03_670-01_00-01_00.ppk=Reverie (3.61+!) [3.67]
PCSB01191/PCSB01191-03_650-01_00-01_01.ppk=One More Dungeon (3.61+!) [3.65]
PCSB01192/PCSB01192-03_650-01_00-01_04.ppk=Iconoclasts (3.61+!) [3.65]
PCSB01202/PCSB01202-03_650-01_00-01_00.ppk=Xenon Valkyrie+ (3.61+!) [3.65]
PCSB01203/PCSB01203-03_650-01_00-01_01.ppk=Energy Invasion (3.61+!) [3.65]
PCSB01204/PCSB01204-03_670-01_00-01_01.ppk=Midnight Deluxe (3.61+!) [3.67]
PCSB01207/PCSB01207-03_650-01_00-01_00.ppk=Time Recoil (3.61+!) [3.65]
PCSB01210/PCSB01210-03_650-01_00-01_01.ppk=Little Adventure on the Prairie (3.61+!) [3.65]
PCSB01218/PCSB01218-03_670-01_00-01_00.ppk=THE KING OF FIGHTERS '97 GLOBAL MATCH (3.61+!) [3.67]
PCSB01224/PCSB01224-03_670-01_00-01_01.ppk=Cosmic Star Heroine (3.61+!) [3.67]
PCSB01228/PCSB01228-03_680-01_00-01_02.ppk=TETRA's Escape (3.61+!) [3.68]
PCSB01230/PCSB01230-03_670-01_00-01_01.ppk=InkSplosion (3.61+!) [3.67]
PCSB01240/PCSB01240-03_670-01_00-01_02.ppk=Devious Dungeon (3.61+!) [3.67]
PCSB01251/PCSB01251-03_680-01_00-01_02.ppk=Super Destronaut DX (3.61+!) [3.68]
PCSB01259/PCSB01259-03_680-01_00-01_01.ppk=Punch Line (3.61+!) [3.68]
PCSB01271/PCSB01271-03_680-01_00-01_02.ppk=Super Skull Smash GO! 2 Turbo (3.61+!) [3.68]
PCSE00036/PCSE00036-03_610-01_00-01_01.ppk=Wanted Corp (3.61+!) [3.61]
PCSE00318/PCSE00318-03_670-01_00-01_01.ppk=Rainbow Skies (3.61+!) [3.67]
PCSE00364/PCSE00364-03_630-01_00-01_08.ppk=WeatherNation (3.61+!) [3.63]
PCSE00621/PCSE00621-03_610-01_00-01_00.ppk=Vertical Drop Heroes HD (3.61+!) [3.61]
PCSE00669/PCSE00669-03_610-01_00-01_02.ppk=Spider: Rite of the Shrouded Moon (3.61+!) [3.61]
PCSE00699/PCSE00699-03_670-01_00-01_00.ppk=Roundabout (3.61+!) [3.67]
PCSE00756/PCSE00756-03_650-01_00-01_04.ppk=VA-11 HALL-A (3.61+!) [3.65]
PCSE00797/PCSE00797-03_630-01_00-01_02.ppk=Forma.8 (3.61+!) [3.63]
PCSE00822/PCSE00822-03_610-01_00-01_00.ppk=Uncanny Valley (3.61+!) [3.61]
PCSE00835/PCSE00835-03_610-01_00-01_01.ppk=Neon Chrome (3.61+!) [3.61]
PCSE00864/PCSE00864-03_630-01_00-01_01.ppk=Blue-Collar Astronaut (3.61+!) [3.63]
PCSE00869/PCSE00869-03_610-01_00-01_03.ppk=Bridge Constructor (3.61+!) [3.61]
PCSE00870/PCSE00870-03_630-01_00-01_01.ppk=Spheroids (3.61+!) [3.63]
PCSE00876/PCSE00876-03_630-01_00-01_04.ppk=iO (3.61+!) [3.63]
PCSE00893/PCSE00893-03_630-01_00-01_00.ppk=Tokyo Xanadu (3.61+!) [3.63]
PCSE00897/PCSE00897-03_610-01_00-01_01.ppk=Xenoraid (3.61+!) [3.61]
PCSE00901/PCSE00901-03_630-01_00-01_01.ppk=Dex (3.61+!) [3.63]
PCSE00903/PCSE00903-03_610-01_00-01_00.ppk=Sword Art Online: Hollow Realization (3.61+!) [3.61]
PCSE00911/PCSE00911-03_610-01_00-01_02.ppk=Space Overlords (3.61+!) [3.61]
PCSE00913/PCSE00913-03_610-01_00-01_01.ppk=Volgarr the Viking (3.61+!) [3.61]
PCSE00914/PCSE00914-03_650-01_00-01_02.ppk=99Vidas (3.61+!) [3.65]
PCSE00919/PCSE00919-03_610-01_00-01_01.ppk=Darkest Dungeon (3.61+!) [3.61]
PCSE00927/PCSE00927-03_630-01_00-01_02.ppk=Akiba's Beat (3.61+!) [3.63]
PCSE00928/PCSE00928-03_610-01_00-01_01.ppk=Fate/EXTELLA: The Umbral Star (3.61+!) [3.61]
PCSE00940/PCSE00940-03_630-01_00-01_01.ppk=Toukiden 2 (3.61+!) [3.63]
PCSE00942/PCSE00942-03_630-01_00-01_02.ppk=Supermagical (3.61+!) [3.63]
PCSE00949/PCSE00949-03_610-01_00-01_01.ppk=Steins;Gate 0 (3.61+!) [3.61]
PCSE00950/PCSE00950-03_630-01_00-01_01.ppk=Shantae: Half-Genie Hero (3.61+!) [3.63]
PCSE00951/PCSE00951-03_650-01_00-01_01.ppk=Summon Night 6:Lost Borders (3.61+!) [3.65]
PCSE00955/PCSE00955-03_630-01_00-01_01.ppk=Fallen Legion: Flames of Rebellion (3.61+!) [3.63]
PCSE00956/PCSE00956-03_670-01_00-01_02.ppk=Mercenary Kings Reloaded (3.61+!) [3.67]
PCSE00957/PCSE00957-03_610-01_00-01_01.ppk=Knobswitch (3.61+!) [3.61]
PCSE00958/PCSE00958-03_610-01_00-01_00.ppk=GAROU: MARK OF THE WOLVES (3.61+!) [3.61]
PCSE00959/PCSE00959-03_630-01_00-01_02.ppk=Utawarerumono: Mask of Deception (3.61+!) [3.63]
PCSE00961/PCSE00961-03_650-01_00-01_02.ppk=Pox Nora (3.61+!) [3.65]
PCSE00963/PCSE00963-03_610-01_00-01_01.ppk=Root Letter (3.61+!) [3.61]
PCSE00964/PCSE00964-03_630-01_00-01_01.ppk=Talisman: Digital Edition (3.61+!) [3.63]
PCSE00965/PCSE00965-03_630-01_00-01_00.ppk=KILLALLZOMBIES (3.61+!) [3.63]
PCSE00966/PCSE00966-03_610-01_00-01_00.ppk=Iron Sea Defenders (3.61+!) [3.61]
PCSE00968/PCSE00968-03_630-01_00-01_01.ppk=Asdivine Hearts (3.61+!) [3.63]
PCSE00971/PCSE00971-03_650-01_00-01_01.ppk=DEADBOLT (3.61+!) [3.65]
PCSE00972/PCSE00972-03_650-01_00-01_03.ppk=2064: Read Only Memories (3.61+!) [3.65]
PCSE00973/PCSE00973-03_630-01_00-01_00.ppk=Hakuoki: Kyoto Winds (3.61+!) [3.63]
PCSE00974/PCSE00974-03_610-01_00-01_01.ppk=Slain: Back from Hell (3.61+!) [3.61]
PCSE00980/PCSE00980-03_610-01_00-01_00.ppk=Air Race Speed (3.61+!) [3.61]
PCSE00981/PCSE00981-03_630-01_00-01_01.ppk=Geki Yaba Runner (3.61+!) [3.63]
PCSE00982/PCSE00982-03_610-01_00-01_02.ppk=My Name is Mayo (3.61+!) [3.61]
PCSE00984/PCSE00984-03_630-01_00-01_01.ppk=DYING: Reborn (3.61+!) [3.63]
PCSE00985/PCSE00985-03_630-01_00-01_01.ppk=Lara Croft GO (3.61+!) [3.63]
PCSE00990/PCSE00990-03_630-01_00-01_01.ppk=Touhou Genso Wanderer (3.61+!) [3.63]
PCSE00992/PCSE00992-03_650-01_00-01_02.ppk=The Bard's Tale: Remastered and Resnarkled (3.61+!) [3.65]
PCSE00993/PCSE00993-03_630-01_00-01_00.ppk=The Longest Five Minutes (3.61+!) [3.63]
PCSE00995/PCSE00995-03_610-01_00-01_01.ppk=DYNASTY WARRIORS: Godseekers (3.61+!) [3.61]
PCSE00996/PCSE00996-03_630-01_00-01_01.ppk=Hue (3.61+!) [3.63]
PCSE00998/PCSE00998-03_630-01_00-01_01.ppk=Atelier Shallie Plus: Alchemists of the Dusk Sea (3.61+!) [3.63]
PCSE00999/PCSE00999-03_610-01_00-01_00.ppk=Cladun Returns: This Is Sengoku! (3.61+!) [3.61]
PCSE01000/PCSE01000-03_630-01_00-01_01.ppk=Full Throttle Remastered (3.61+!) [3.63]
PCSE01002/PCSE01002-03_630-01_00-01_00.ppk=Mr. Pumpkin's Adventure (3.61+!) [3.63]
PCSE01003/PCSE01003-03_630-01_00-01_01.ppk=Valkyria Revolution (3.61+!) [3.63]
PCSE01004/PCSE01004-03_650-01_00-01_01.ppk=Nurse Love Addiction (3.61+!) [3.65]
PCSE01005/PCSE01005-03_610-01_00-01_01.ppk=Demetrios - The BIG Cynical Adventure (3.61+!) [3.61]
PCSE01006/PCSE01006-03_630-01_00-01_02.ppk=Zero Escape: The Nonary Games (3.61+!) [3.63]
PCSE01010/PCSE01010-03_630-01_00-01_00.ppk=Lichtspeer (3.61+!) [3.63]
PCSE01011/PCSE01011-03_650-01_00-01_00.ppk=Collar X Malice (3.61+!) [3.65]
PCSE01013/PCSE01013-03_610-01_00-01_00.ppk=Mutant Mudds Deluxe (3.61+!) [3.61]
PCSE01014/PCSE01014-03_650-01_00-01_00.ppk=Mary Skelter: Nightmares (3.61+!) [3.65]
PCSE01015/PCSE01015-03_630-01_00-01_00.ppk=Touhou Double Focus (3.61+!) [3.63]
PCSE01016/PCSE01016-03_630-01_00-01_02.ppk=Siralim 2 (3.61+!) [3.63]
PCSE01019/PCSE01019-03_650-01_00-01_03.ppk=Bodycheck (3.61+!) [3.65]
PCSE01021/PCSE01021-03_630-01_00-01_02.ppk=The Deer God (3.61+!) [3.63]
PCSE01022/PCSE01022-03_650-01_00-01_01.ppk=Chaos;Child (3.61+!) [3.65]
PCSE01023/PCSE01023-03_630-01_00-01_01.ppk=Salt and Sanctuary (3.61+!) [3.63]
PCSE01026/PCSE01026-03_630-01_00-01_01.ppk=GOD WARS Future Past (3.61+!) [3.63]
PCSE01031/PCSE01031-03_680-01_00-01_01.ppk=Chasm (3.61+!) [3.68]
PCSE01032/PCSE01032-03_650-01_00-01_00.ppk=Windjammers (3.61+!) [3.65]
PCSE01033/PCSE01033-03_630-01_00-01_00.ppk=Ys Origin (3.61+!) [3.63]
PCSE01034/PCSE01034-03_630-01_00-01_01.ppk=Berserk and the Band of the Hawk (3.61+!) [3.63]
PCSE01035/PCSE01035-03_630-01_00-01_00.ppk=Farming Simulator 18 (3.61+!) [3.63]
PCSE01036/PCSE01036-03_630-01_00-01_01.ppk=Kung Fury: Street Rage (3.61+!) [3.63]
PCSE01037/PCSE01037-03_630-01_00-01_01.ppk=The Caligula Effect (3.61+!) [3.63]
PCSE01038/PCSE01038-03_650-01_00-01_05.ppk=Vostok Inc. (3.61+!) [3.65]
PCSE01041/PCSE01041-03_630-01_00-01_02.ppk=DEEMO ~The Last Recital~ (3.61+!) [3.63]
PCSE01042/PCSE01042-03_650-01_00-01_01.ppk=Bad Apple Wars (3.61+!) [3.65]
PCSE01044/PCSE01044-03_630-01_00-01_01.ppk=Atelier Firis ~The Alchemist and the Mysterious Journey~ (3.61+!) [3.63]
PCSE01046/PCSE01046-03_630-01_00-01_00.ppk=A Rose in the Twilight (3.61+!) [3.63]
PCSE01047/PCSE01047-03_630-01_00-01_01.ppk=Operation Babel: New Tokyo Legacy (3.61+!) [3.63]
PCSE01048/PCSE01048-03_630-01_00-01_00.ppk=Fairune (3.61+!) [3.63]
PCSE01049/PCSE01049-03_630-01_00-01_00.ppk=The Legend of Dark Witch (3.61+!) [3.63]
PCSE01050/PCSE01050-03_650-01_00-01_02.ppk=Polara (3.61+!) [3.65]
PCSE01051/PCSE01051-03_650-01_00-01_02.ppk=Factotum 90 (3.61+!) [3.65]
PCSE01052/PCSE01052-03_630-01_00-01_00.ppk=STRANGER OF SWORD CITY REVISITED (3.61+!) [3.63]
PCSE01054/PCSE01054-03_630-01_00-01_01.ppk=Skylight Freerange (3.61+!) [3.63]
PCSE01055/PCSE01055-03_670-01_00-01_01.ppk=Root Double -Before Crime * After Days- Xtend Edition (3.61+!) [3.67]
PCSE01056/PCSE01056-03_650-01_00-01_01.ppk=Papers, Please (3.61+!) [3.65]
PCSE01057/PCSE01057-03_650-01_00-01_00.ppk=Code: Realize ~Future Blessings~ (3.61+!) [3.65]
PCSE01065/PCSE01065-03_630-01_00-01_01.ppk=Revenant Saga (3.61+!) [3.63]
PCSE01066/PCSE01066-03_630-01_00-01_00.ppk=Toukiden 2 Free Alliances Version (3.61+!) [3.63]
PCSE01067/PCSE01067-03_650-01_00-01_00.ppk=Ninja Usagimaru: Two Tails of Adventure (3.61+!) [3.65]
PCSE01068/PCSE01068-03_670-01_00-01_02.ppk=BUNNY MUST DIE! CHELSEA AND THE 7 DEVILS. (3.61+!) [3.67]
PCSE01071/PCSE01071-03_650-01_00-01_00.ppk=Accel World VS Sword Art Online (3.61+!) [3.65]
PCSE01074/PCSE01074-03_630-01_00-01_01.ppk=Plague Road (3.61+!) [3.63]
PCSE01081/PCSE01081-03_650-01_00-01_01.ppk=Twin Robots (3.61+!) [3.65]
PCSE01083/PCSE01083-03_630-01_00-01_01.ppk=Blasting Agent: Ultimate Edition (3.61+!) [3.63]
PCSE01085/PCSE01085-03_670-01_00-01_04.ppk=League of Evil (3.61+!) [3.67]
PCSE01089/PCSE01089-03_630-01_00-01_00.ppk=Spellspire (3.61+!) [3.63]
PCSE01094/PCSE01094-03_650-01_00-01_01.ppk=Romancing Saga 2 (3.61+!) [3.65]
PCSE01096/PCSE01096-03_670-01_00-01_02.ppk=Bit Dungeon Plus (3.61+!) [3.67]
PCSE01097/PCSE01097-03_630-01_00-01_02.ppk=Oceanhorn: Monster of Uncharted Seas (3.61+!) [3.63]
PCSE01098/PCSE01098-03_650-01_00-01_02.ppk=Still Time (3.61+!) [3.65]
PCSE01099/PCSE01099-03_630-01_00-01_00.ppk=Drive Girls (3.61+!) [3.63]
PCSE01100/PCSE01100-03_650-01_00-01_01.ppk=Danganronpa V3: Killing Harmony (3.61+!) [3.65]
PCSE01101/PCSE01101-03_650-01_00-01_00.ppk=SteamWorld Dig 2 (3.61+!) [3.65]
PCSE01102/PCSE01102-03_650-01_00-01_00.ppk=Utawarerumono: Mask of Truth (3.61+!) [3.65]
PCSE01103/PCSE01103-03_650-01_00-01_01.ppk=Ys VIII: Lacrimosa of DANA (3.61+!) [3.65]
PCSE01104/PCSE01104-03_650-01_00-01_01.ppk=Touhou Kobuto V: Burst Battle (3.61+!) [3.65]
PCSE01111/PCSE01111-03_650-01_00-01_01.ppk=Rabi-Ribi (3.61+!) [3.65]
PCSE01112/PCSE01112-03_650-01_00-01_02.ppk=The Count Lucanor (3.61+!) [3.65]
PCSE01113/PCSE01113-03_650-01_00-01_01.ppk=SAMURAI SHODOWN V SPECIAL (3.61+!) [3.65]
PCSE01116/PCSE01116-03_650-01_00-01_00.ppk=Undertale (3.61+!) [3.65]
PCSE01119/PCSE01119-03_650-01_00-01_00.ppk=It's Spring Again (3.61+!) [3.65]
PCSE01128/PCSE01128-03_650-01_00-01_01.ppk=Save the Ninja Clan (3.61+!) [3.65]
PCSE01135/PCSE01135-03_650-01_00-01_01.ppk=Burly Men at Sea (3.61+!) [3.65]
PCSE01137/PCSE01137-03_650-01_00-01_02.ppk=NeverEnd (3.61+!) [3.65]
PCSE01139/PCSE01139-03_650-01_00-01_01.ppk=Yomawari: Midnight Shadows (3.61+!) [3.65]
PCSE01141/PCSE01141-03_650-01_00-01_01.ppk=Demon Gaze II (3.61+!) [3.65]
PCSE01143/PCSE01143-03_670-01_00-01_00.ppk=Penny-Punching Princess (3.61+!) [3.67]
PCSE01144/PCSE01144-03_650-01_00-01_01.ppk=Under Night In-Birth Exe:Late[st] (3.61+!) [3.65]
PCSE01145/PCSE01145-03_680-01_00-01_02.ppk=Spacejacked (3.61+!) [3.68]
PCSE01146/PCSE01146-03_650-01_00-01_03.ppk=Super Hydorah (3.61+!) [3.65]
PCSE01147/PCSE01147-03_650-01_00-01_01.ppk=Antiquia Lost (3.61+!) [3.65]
PCSE01150/PCSE01150-03_650-01_00-01_01.ppk=Tokyo Tattoo Girls (3.61+!) [3.65]
PCSE01151/PCSE01151-03_650-01_00-01_00.ppk=Squareboy vs Bullies: Arena Edition (3.61+!) [3.65]
PCSE01152/PCSE01152-03_650-01_00-01_01.ppk=Cursed Castilla (Maldita Castilla EX) (3.61+!) [3.65]
PCSE01153/PCSE01153-03_670-01_00-01_00.ppk=Secret of Mana (3.61+!) [3.67]
PCSE01154/PCSE01154-03_650-01_00-01_02.ppk=Son of Scoregasm (3.61+!) [3.65]
PCSE01158/PCSE01158-03_650-01_00-01_01.ppk=Mecho Tales (3.61+!) [3.65]
PCSE01162/PCSE01162-03_680-01_00-01_03.ppk=The Long Reach (3.61+!) [3.68]
PCSE01164/PCSE01164-03_670-01_00-01_01.ppk=Psychedelica of the Black Butterfly (3.61+!) [3.67]
PCSE01166/PCSE01166-03_670-01_00-01_00.ppk=Psychedelica of the Ashen Hawk (3.61+!) [3.67]
PCSE01168/PCSE01168-03_670-01_00-01_01.ppk=7'scarlet (3.61+!) [3.67]
PCSE01169/PCSE01169-03_650-01_00-01_01.ppk=36 Fragments of Midnight (3.61+!) [3.65]
PCSE01171/PCSE01171-03_650-01_00-01_00.ppk=Digimon Story Cyber Sleuth: Hacker's Memory (3.61+!) [3.65]
PCSE01172/PCSE01172-03_650-01_00-01_02.ppk=Alteric (3.61+!) [3.65]
PCSE01173/PCSE01173-03_650-01_00-01_01.ppk=North (3.61+!) [3.65]
PCSE01175/PCSE01175-03_650-01_00-01_01.ppk=Spiral Splatter (3.61+!) [3.65]
PCSE01177/PCSE01177-03_650-01_00-01_01.ppk=Iconoclasts (3.61+!) [3.65]
PCSE01179/PCSE01179-03_670-01_00-01_00.ppk=The Lost Child (3.61+!) [3.67]
PCSE01180/PCSE01180-03_670-01_00-01_01.ppk=Damascus Gear: Operation Osaka (3.61+!) [3.67]
PCSE01190/PCSE01190-03_670-01_00-01_00.ppk=Dragon Sinker (3.61+!) [3.67]
PCSE01191/PCSE01191-03_650-01_00-01_01.ppk=Xenon Valkyrie+ (3.61+!) [3.65]
PCSE01192/PCSE01192-03_650-01_00-01_01.ppk=Energy Invasion (3.61+!) [3.65]
PCSE01194/PCSE01194-03_670-01_00-01_01.ppk=Midnight Deluxe (3.61+!) [3.67]
PCSE01198/PCSE01198-03_650-01_00-01_01.ppk=Rogue Aces (3.61+!) [3.65]
PCSE01218/PCSE01218-03_650-01_00-01_02.ppk=Little Red Lie (3.61+!) [3.65]
PCSE01219/PCSE01219-03_670-01_00-01_01.ppk=Deep Ones (3.61+!) [3.67]
PCSE01220/PCSE01220-03_650-01_00-01_00.ppk=One Eyed Kutkh (3.61+!) [3.65]
PCSE01221/PCSE01221-03_670-01_00-01_00.ppk=Metropolis: Lux Obscura (3.61+!) [3.67]
PCSE01225/PCSE01225-03_670-01_00-01_03.ppk=Super Skull Smash GO! 2 Turbo (3.61+!) [3.67]
PCSE01229/PCSE01229-03_670-01_00-01_01.ppk=Reverie (3.61+!) [3.67]
PCSE01231/PCSE01231-03_670-01_00-01_01.ppk=Little Adventure on the Prairie (3.61+!) [3.67]
PCSE01232/PCSE01232-03_670-01_00-01_01.ppk=Cosmic Star Heroine (3.61+!) [3.67]
PCSE01235/PCSE01235-03_670-01_00-01_01.ppk=Stardew Valley (3.61+!) [3.67]
PCSE01236/PCSE01236-03_670-01_00-01_05.ppk=NeuroVoider (3.61+!) [3.67]
PCSE01237/PCSE01237-03_670-01_00-01_01.ppk=InkSplosion (3.61+!) [3.67]
PCSE01238/PCSE01238-03_680-01_00-01_02.ppk=TETRA's Escape (3.61+!) [3.68]
PCSE01241/PCSE01241-03_680-01_00-01_01.ppk=The Dreamlands: Aisling's Quest (3.61+!) [3.68]
PCSE01249/PCSE01249-03_670-01_00-01_02.ppk=Devious Dungeon (3.61+!) [3.67]
PCSE01251/PCSE01251-03_670-01_00-01_01.ppk=Riddled Corpses EX (3.61+!) [3.67]
PCSE01259/PCSE01259-03_670-01_00-01_00.ppk=Muv-Luv (3.61+!) [3.67]
PCSE01260/PCSE01260-03_670-01_00-01_00.ppk=Muv-Luv Alternative (3.61+!) [3.67]
PCSE01262/PCSE01262-03_670-01_00-01_01.ppk=Bloodstained: Curse of the Moon (3.61+!) [3.67]
PCSE01263/PCSE01263-03_680-01_00-01_01.ppk=Super Destronaut DX (3.61+!) [3.68]
PCSE01266/PCSE01266-03_680-01_00-01_00.ppk=Waking Violet (3.61+!) [3.68]
PCSE01286/PCSE01286-03_680-01_00-01_01.ppk=Word Search by POWGI (3.61+!) [3.68]
PCSG00340/PCSG00340-03_670-01_00-01_03.ppk=Manga Kakeru (3.61+!) [3.67]
PCSG00567/PCSG00567-03_630-01_00-01_01.ppk=YU-NO: Konoyo no Hate de Koi o Utau Shoujo (3.61+!) [3.63]
PCSG00573/PCSG00573-03_650-01_00-01_02.ppk=The Lost Child (3.61+!) [3.65]
PCSG00600/PCSG00600-03_610-01_00-01_02.ppk=Fate/EXTELLA (3.61+!) [3.61]
PCSG00701/PCSG00701-03_650-01_00-01_03.ppk=Touhou Sky Arena: Gensoukyou Kuusen Hime Matsuri Climax (3.61+!) [3.65]
PCSG00716/PCSG00716-03_630-01_00-01_01.ppk=CloverDay's (3.61+!) [3.63]
PCSG00781/PCSG00781-03_610-01_00-01_02.ppk=RecoLove Blue Ocean (3.61+!) [3.61]
PCSG00782/PCSG00782-03_610-01_00-01_02.ppk=RecoLove: Gold Beach (3.61+!) [3.61]
PCSG00793/PCSG00793-03_610-01_00-01_00.ppk=SD Gundam G Generation Genesis (Require External Data DLC) (3.61+!) [3.61]
PCSG00797/PCSG00797-03_610-01_00-01_01.ppk=Boku wa Mori Sekai no Kami Tonaru (3.61+!) [3.61]
PCSG00800/PCSG00800-03_610-01_00-01_01.ppk=Yaken no Reodem (3.61+!) [3.61]
PCSG00802/PCSG00802-03_610-01_00-01_00.ppk=SaGa SCARLET GRACE (3.61+!) [3.61]
PCSG00805/PCSG00805-03_610-01_00-01_01.ppk=Code:Realize - Shukufuku no Mirai (3.61+!) [3.61]
PCSG00814/PCSG00814-03_630-01_00-01_01.ppk=Bentou no Subarashisa o Ano 2-Tabi 3-Tabi (3.61+!) [3.63]
PCSG00834/PCSG00834-03_610-01_00-01_00.ppk=Toukiden 2 Free Alliances Version / Co-Op Battle Version (3.61+!) [3.61]
PCSG00841/PCSG00841-03_630-01_00-01_01.ppk=Dungeon Travelers 2-2: Yamiochi no Otome to Hajimari no Sho (3.61+!) [3.63]
PCSG00842/PCSG00842-03_630-01_00-01_00.ppk=Damascus Gear: Saikyou Exodus (3.61+!) [3.63]
PCSG00865/PCSG00865-03_610-01_00-01_01.ppk=Idol Death Game TV (3.61+!) [3.61]
PCSG00868/PCSG00868-03_610-01_00-01_01.ppk=Sword Art Online: Hollow Realization (3.61+!) [3.61]
PCSG00877/PCSG00877-03_610-01_00-01_01.ppk=Neo ATLAS 1469 (3.61+!) [3.61]
PCSG00883/PCSG00883-03_630-01_00-01_01.ppk=Zero Escape: 9 Jikan 9 nin 9 no Tobira Zennin Shibo Dos Double Pack (3.61+!) [3.63]
PCSG00898/PCSG00898-03_610-01_00-01_00.ppk=Mary Skelter Nightmare (3.61+!) [3.61]
PCSG00899/PCSG00899-03_610-01_00-01_01.ppk=Tokyo Tattoo Girls (3.61+!) [3.61]
PCSG00908/PCSG00908-03_630-01_00-01_00.ppk=Saki: Zenkoku-hen Plus (3.61+!) [3.63]
PCSG00929/PCSG00929-03_610-01_00-01_02.ppk=Atelier Firis ~The Alchemist and the Mysterious Journey~ (3.61+!) [3.61]
PCSG00932/PCSG00932-03_630-01_00-01_00.ppk=Itadaki Street: Dragon Quest & Final Fantasy 30th Anniversary (3.61+!) [3.63]
PCSG00933/PCSG00933-03_630-01_00-01_01.ppk=Re:Zero - kara Hajimeru Isekai Seikatsu - Death or Kiss (3.61+!) [3.63]
PCSG00936/PCSG00936-03_630-01_00-01_03.ppk=Danganronpa V3: Killing Harmony (3.61+!) [3.63]
PCSG00938/PCSG00938-03_630-01_00-01_01.ppk=Wand of Fortune R2: Jikuu ni Shizumu Mokushiroku (3.61+!) [3.63]
PCSG00939/PCSG00939-03_630-01_00-01_01.ppk=Omega Labyrinth Z (3.61+!) [3.63]
PCSG00942/PCSG00942-03_610-01_00-01_02.ppk=Otome Riron to Sono Shuuhen: Bon Voyage (3.61+!) [3.61]
PCSG00946/PCSG00946-03_610-01_00-01_02.ppk=Penny-Punching Princess (3.61+!) [3.61]
PCSG00947/PCSG00947-03_610-01_00-01_01.ppk=Macross Delta Scramble (3.61+!) [3.61]
PCSG00951/PCSG00951-03_650-01_00-01_01.ppk=Nep-Nep Connect: Chaos Chanpuru (3.61+!) [3.65]
PCSG00952/PCSG00952-03_630-01_00-01_02.ppk=Akiba's Beat (3.61+!) [3.63]
PCSG00957/PCSG00957-03_630-01_00-01_01.ppk=Garou: Mark of the Wolves (3.61+!) [3.63]
PCSG00958/PCSG00958-03_630-01_00-01_01.ppk=Rei-Jin-G-Lu-P (3.61+!) [3.63]
PCSG00960/PCSG00960-03_630-01_00-01_02.ppk=Ken ga Kimi: Momoyo Tsuzuri (3.61+!) [3.63]
PCSG00961/PCSG00961-03_630-01_00-01_00.ppk=Fata Morgana no Yakata (3.61+!) [3.63]
PCSG00964/PCSG00964-03_630-01_00-01_01.ppk=UNDER NIGHT IN-BIRTH Exe:Late[st] (3.61+!) [3.63]
PCSG00967/PCSG00967-03_630-01_00-01_02.ppk=Owaru Sekai to Birthday (3.61+!) [3.63]
PCSG00968/PCSG00968-03_650-01_00-01_01.ppk=Taishou Mebiusline: Teito Bibouroku Hare (3.61+!) [3.65]
PCSG00971/PCSG00971-03_630-01_00-01_01.ppk=Asdivine Hearts (3.61+!) [3.63]
PCSG00972/PCSG00972-03_670-01_00-01_02.ppk=METAL MAX Xeno (3.61+!) [3.67]
PCSG00975/PCSG00975-03_630-01_00-01_01.ppk=Harukanaru Toki no Naka de 6: Gentou Rondo (3.61+!) [3.63]
PCSG00977/PCSG00977-03_650-01_00-01_02.ppk=Touhou Genso Maroku W: The Devil of Decline (3.61+!) [3.65]
PCSG00981/PCSG00981-03_610-01_00-01_00.ppk=FLOWERS: Toki-Hen (3.61+!) [3.61]
PCSG00983/PCSG00983-03_610-01_00-01_01.ppk=Sengoku Shura SOUL (3.61+!) [3.61]
PCSG00985/PCSG00985-03_610-01_00-01_01.ppk=Touhou Genso Wanderer (3.61+!) [3.61]
PCSG00986/PCSG00986-03_650-01_00-01_02.ppk=Nights of Azure 2: Bride of the New Moon (3.61+!) [3.65]
PCSG00987/PCSG00987-03_630-01_00-01_01.ppk=Blue Reflection: Maboroshi ni Mau - Shoujo no Ken (3.61+!) [3.63]
PCSG00991/PCSG00991-03_630-01_00-01_01.ppk=Getsuei no Kusari: Kouran Moratorium (3.61+!) [3.63]
PCSG00992/PCSG00992-03_630-01_00-01_01.ppk=Harukanaru Toki no Naka de 3 Ultimate (3.61+!) [3.63]
PCSG00993/PCSG00993-03_630-01_00-01_00.ppk=Sousei no Onmyouji (3.61+!) [3.63]
PCSG00995/PCSG00995-03_630-01_00-01_01.ppk=Chaos;Child: Love chu☆chu!!  (3.61+!) [3.63]
PCSG00996/PCSG00996-03_630-01_00-01_00.ppk=Kono Yo no Hate de Koi wo Utau Shoujo YU-NO Original NEC PC-9800 Series Version (3.61+!) [3.63]
PCSG01000/PCSG01000-03_630-01_00-01_00.ppk=ISLAND (3.61+!) [3.63]
PCSG01005/PCSG01005-03_630-01_00-01_01.ppk=Shiin (3.61+!) [3.63]
PCSG01007/PCSG01007-03_630-01_00-01_01.ppk=Kamaitachi no Yoru: Rinne Saisei (3.61+!) [3.63]
PCSG01010/PCSG01010-03_630-01_00-01_01.ppk=Nidhogg (3.61+!) [3.63]
PCSG01013/PCSG01013-03_630-01_00-01_01.ppk=Gun Gun Pixies (3.61+!) [3.63]
PCSG01015/PCSG01015-03_630-01_00-01_01.ppk=Tokeijikake no Ley Line: Kagerou ni Samayou Majo (3.61+!) [3.63]
PCSG01020/PCSG01020-03_630-01_00-01_00.ppk=Ikemen Bakumatsu: Unmei no Koi (3.61+!) [3.63]
PCSG01021/PCSG01021-03_650-01_00-01_01.ppk=OCCULTIC;NINE (3.61+!) [3.65]
PCSG01023/PCSG01023-03_630-01_00-01_01.ppk=Tsuihou Senkyo (3.61+!) [3.63]
PCSG01026/PCSG01026-03_630-01_00-01_00.ppk=Eiyuu Densetsu: Akatsuki no Kiseki (3.61+!) [3.63]
PCSG01027/PCSG01027-03_650-01_00-01_02.ppk=Gundemoniums (3.61+!) [3.65]
PCSG01028/PCSG01028-03_650-01_00-01_01.ppk=Kono Subarashii Sekai ni Shukufuku wo! Kono Yokubukai Game ni Shinpan wo! (3.61+!) [3.65]
PCSG01029/PCSG01029-03_630-01_00-01_01.ppk=Gal*Gun: Double Peace Bilingual (3.61+!) [3.63]
PCSG01030/PCSG01030-03_670-01_00-01_01.ppk=Persona 5: Dancing Star Night (3.61+!) [3.67]
PCSG01031/PCSG01031-03_670-01_00-01_01.ppk=Persona 3: Dancing Moon Night (3.61+!) [3.67]
PCSG01043/PCSG01043-03_630-01_00-01_00.ppk=Rewrite Harvest festa! (3.61+!) [3.63]
PCSG01045/PCSG01045-03_650-01_00-01_01.ppk=Jikkyou Powerful Pro Yakyuu Championship 2017 (3.61+!) [3.65]
PCSG01060/PCSG01060-03_630-01_00-01_02.ppk=Hulu (3.61+!) [3.63]
PCSG01071/PCSG01071-03_650-01_00-01_02.ppk=PHOTON³ (3.61+!) [3.65]
PCSG01072/PCSG01072-03_650-01_00-01_01.ppk=VA-11 Hall-A (3.61+!) [3.65]
PCSG01073/PCSG01073-03_650-01_00-01_01.ppk=Gintama Rumble (3.61+!) [3.65]
PCSG01076/PCSG01076-03_650-01_00-01_01.ppk=Oretachi no Sekai wa Owatteiru (3.61+!) [3.65]
PCSG01079/PCSG01079-03_670-01_00-01_00.ppk=Utawarerumono: Chiriyuku Mono e no Komoriuta (3.61+!) [3.67]
PCSG01080/PCSG01080-03_650-01_00-01_01.ppk=Yomawari: Midnight Shadows (3.61+!) [3.65]
PCSG01082/PCSG01082-03_630-01_00-01_01.ppk=DYING: Reborn (3.61+!) [3.63]
PCSG01083/PCSG01083-03_650-01_00-01_00.ppk=Iwaihime -Matsuri- (3.61+!) [3.65]
PCSG01084/PCSG01084-03_650-01_00-01_00.ppk=Wagamama High Spec (3.61+!) [3.65]
PCSG01091/PCSG01091-03_670-01_00-01_02.ppk=Fate/EXTELLA LINK (3.61+!) [3.67]
PCSG01093/PCSG01093-03_650-01_00-01_00.ppk=Kono Subarashii Sekai ni Shukufuku wo! ATTACK OF THE DESTROYER (3.61+!) [3.65]
PCSG01095/PCSG01095-03_650-01_00-01_00.ppk=Grisaia no Kajitsu: Side Episode (3.61+!) [3.65]
PCSG01099/PCSG01099-03_650-01_00-01_01.ppk=Ninja Usagimaru: Two Tails of Adventure (3.61+!) [3.65]
PCSG01100/PCSG01100-03_670-01_00-01_01.ppk=Doukoku Soshite... (3.61+!) [3.67]
PCSG01102/PCSG01102-03_670-01_00-01_01.ppk=Attack on Titan 2 (3.61+!) [3.67]
PCSG01103/PCSG01103-03_650-01_00-01_00.ppk=Tokyo Clanpool (3.61+!) [3.65]
PCSG01107/PCSG01107-03_650-01_00-01_00.ppk=Nora To Oujo To Noraneko Heart (3.61+!) [3.65]
PCSG01109/PCSG01109-03_650-01_00-01_00.ppk=Onigiri (3.61+!) [3.65]
PCSG01112/PCSG01112-03_650-01_00-01_00.ppk=Undertale (3.61+!) [3.65]
PCSG01113/PCSG01113-03_680-01_00-01_02.ppk=Zanki Zero (3.61+!) [3.68]
PCSG01116/PCSG01116-03_650-01_00-01_02.ppk=Atelier Lydie & Suelle: Fushigi na Kaiga no Renkinjutsushi (3.61+!) [3.65]
PCSG01117/PCSG01117-03_650-01_00-01_00.ppk=Goetia: The Infinite Tower (3.61+!) [3.65]
PCSG01121/PCSG01121-03_650-01_00-01_00.ppk=Seiken Densetsu 2: Secret of Mana (3.61+!) [3.65]
PCSG01123/PCSG01123-03_650-01_00-01_00.ppk=Banbutsu otome ☆ danjonzu (3.61+!) [3.65]
PCSG01124/PCSG01124-03_650-01_00-01_00.ppk=Kin-iro no Corda 2 ff (3.61+!) [3.65]
PCSG01134/PCSG01134-03_650-01_00-01_01.ppk=Ephemeral: Fantasy on Dark (3.61+!) [3.65]
PCSG01137/PCSG01137-03_670-01_00-01_02.ppk=2064: Read Only Memories (3.61+!) [3.67]
PCSG01143/PCSG01143-03_670-01_00-01_01.ppk=Browser San Goku Shi (3.61+!) [3.67]
PCSG01147/PCSG01147-03_670-01_00-01_01.ppk=Reverie (3.61+!) [3.67]
PCSG01149/PCSG01149-03_650-01_00-01_00.ppk=Grisaia Phantom Trigger 01 & 02 (3.61+!) [3.65]
PCSG01153/PCSG01153-03_650-01_00-01_00.ppk=Katahane -An' call Belle- (3.61+!) [3.65]
PCSG01157/PCSG01157-03_670-01_00-01_01.ppk=Harukanaru Toki no Naka de Ultimate (3.61+!) [3.67]
PCSG01161/PCSG01161-03_650-01_00-01_00.ppk=OCCULTIC;NINE Soundtrack (3.61+!) [3.65]
PCSG01162/PCSG01162-03_680-01_00-01_01.ppk=Collar×Malice －Unlimited－ (3.61+!) [3.68]
PCSG01163/PCSG01163-03_670-01_00-01_02.ppk=Anata no Shikihime Kyoudoutan (3.61+!) [3.67]
PCSG01164/PCSG01164-03_670-01_00-01_01.ppk=Jikkyou Powerful Pro Yakyuu 2018 (3.61+!) [3.67]
PCSG01170/PCSG01170-03_670-01_00-01_02.ppk=Sir Eatsalot  (3.61+!) [3.67]
PCSG01177/PCSG01177-03_670-01_00-01_00.ppk=Shiki hime no niwa (3.61+!) [3.67]
PCSG01183/PCSG01183-03_670-01_00-01_01.ppk=Memories Off -Innocent Fille- (3.61+!) [3.67]
PCSG01187/PCSG01187-03_670-01_00-01_00.ppk=FLOWERS: Fuyu-hen (3.61+!) [3.67]
PCSG01188/PCSG01188-03_670-01_00-01_01.ppk=THE KING OF FIGHTERS '97 GLOBAL MATCH (3.61+!) [3.67]
PCSG01189/PCSG01189-03_670-01_00-01_02.ppk=Infinita Strada Hana (3.61+!) [3.67]
PCSG01191/PCSG01191-03_670-01_00-01_02.ppk=Liar Princess and the Blind Prince (3.61+!) [3.67]
PCSG01195/PCSG01195-03_670-01_00-01_03.ppk=God Wars: Nihon Shinwa Taisen (3.61+!) [3.67]
PCSG01200/PCSG01200-03_680-01_00-01_00.ppk=Dungeon Hunter 5 (3.61+!) [3.68]
PCSG01201/PCSG01201-03_680-01_00-01_00.ppk=Tonari ni Kanojo no Iru Shiawase ~Winter Guest~ (3.61+!) [3.68]
PCSG01210/PCSG01210-03_680-01_00-01_00.ppk=Seven Days: Anata to Sugosu Nanokakan (3.61+!) [3.68]
PCSG01218/PCSG01218-03_680-01_00-01_00.ppk=Grisaia Phantom Trigger EP3 & EP4 (3.61+!) [3.68]
PCSG01219/PCSG01219-03_680-01_00-01_00.ppk=Jikkyou Powerful Pro Yakyuu Championship 2018 (3.61+!) [3.68]
PCSG01220/PCSG01220-03_680-01_00-01_00.ppk=METALMAX DIGITAL SOUNDTRACK BONUS TRACK (3.61+!)[3.68]
PCSG01228/PCSG01228-03_680-01_00-01_00.ppk=ZANKI ZERO DIGITAL SOUNDTRACK BONUS TRACK (3.61+!)[3.68]
PCSG90253/PCSG90253-03_610-01_00-01_00.ppk=βeater'sPlayerEdition(PS Vita版) (3.61+!) [3.61]
PCSH00223/PCSH00223-03_610-01_00-01_00.ppk=WORLD OF FINAL FANTASY (3.61+!) [3.61]
PCSH00240/PCSH00240-03_610-01_00-01_02.ppk=DYING: Reborn (Chinese Ver.) (3.61+!) [3.61]
PCSH00241/PCSH00241-03_610-01_00-01_00.ppk=SD GUNDAM G GENERATION GENESIS (3.61+!) [3.61]
PCSH00242/PCSH00242-03_610-01_00-01_00.ppk=SD GUNDAM G GENERATION GENESIS English Ver. (3.61+!) [3.61]
PCSH00266/PCSH00266-03_610-01_00-01_00.ppk=Sword Art Online -Hollow Realization- (3.61+!) [3.61]
PCSH00284/PCSH00284-03_610-01_00-01_01.ppk=Psycho-Pass: Mandatory Happiness (3.61+!) [3.61]
PCSH00292/PCSH00292-03_610-01_00-01_00.ppk=Toukiden 2 (3.61+!) [3.61]
PCSH00299/PCSH00299-03_610-01_00-01_00.ppk=Fate/EXTELLA (3.61+!) [3.61]
PCSH00301/PCSH00301-03_610-01_00-01_01.ppk=GENKAITOKKI MOERO CRYSTAL (3.61+!) [3.61]
PCSH00308/PCSH00308-03_630-01_00-01_01.ppk=ROMANCE OF THE THREE KINGDOMS XIII: Fame and Strategy (3.61+!) [3.63]
PCSH10001/PCSH10001-03_630-01_00-01_00.ppk=Super Robot Wars V (English Version) (3.61+!) [3.63]
PCSH10004/PCSH10004-03_630-01_00-01_00.ppk=Super Robot Wars V (Chinese Version) (3.61+!) [3.63]
PCSH10006/PCSH10006-03_610-01_00-01_01.ppk=DYNASTY WARRIORS: Godseekers (3.61+!) [3.61]
PCSH10008/PCSH10008-03_630-01_00-01_00.ppk=VALKYRIA : AZURE REVOLUTION (3.61+!) [3.63]
PCSH10009/PCSH10009-03_630-01_00-01_00.ppk=Tokyo Xanadu (3.61+!) [3.63]
PCSH10017/PCSH10017-03_630-01_00-01_00.ppk=Akiba's Beat (3.61+!) [3.63]
PCSH10019/PCSH10019-03_650-01_00-01_01.ppk=Radio Hammer Station (3.61+!) [3.65]
PCSH10024/PCSH10024-03_630-01_00-01_00.ppk=GOD WARS Future Past (Chinese Ver.) (3.61+!) [3.63]
PCSH10025/PCSH10025-03_630-01_00-01_00.ppk=Berserk and the Band of the Hawk (3.61+!) [3.63]
PCSH10026/PCSH10026-03_630-01_00-01_00.ppk=Atelier Firis ~The Alchemist and the Mysterious Journey~ (3.61+!) [3.63]
PCSH10027/PCSH10027-03_630-01_00-01_01.ppk=Toukiden 2 Free Alliances Version (3.61+!) [3.63]
PCSH10037/PCSH10037-03_630-01_00-01_01.ppk=MUSOU Stars (3.61+!) [3.63]
PCSH10038/PCSH10038-03_630-01_00-01_00.ppk=Accel World vs Sword Art Online: Millennium Twilight (3.61+!) [3.63]
PCSH10039/PCSH10039-03_630-01_00-01_02.ppk=Chaos;Child (3.61+!) [3.63]
PCSH10044/PCSH10044-03_650-01_00-01_01.ppk=Omega Labyrinth Z (3.61+!) [3.65]
PCSH10049/PCSH10049-03_650-01_00-01_01.ppk=Ys Origin (3.61+!) [3.65]
PCSH10051/PCSH10051-03_650-01_00-01_00.ppk=Danganronpa V3: Killing Harmony (3.61+!) [3.65]
PCSH10058/PCSH10058-03_650-01_00-01_00.ppk=MUSYNC (3.61+!) [3.65]
PCSH10059/PCSH10059-03_650-01_00-01_02.ppk=Digimon Story Cyber Sleuth Hacker's Memory (Chinese Ver.) (3.61+!) [3.65]
PCSH10060/PCSH10060-03_650-01_00-01_00.ppk=The Legend of Heroes Sora No Kiseki SC Evolution (3.61+!) [3.65]
PCSH10064/PCSH10064-03_650-01_00-01_00.ppk=Semispheres (English/Chinese/Korean/Japanese Ver.) (3.61+!) [3.65]
PCSH10067/PCSH10067-03_670-01_00-01_00.ppk=Secret of Mana (3.61+!) [3.67]
PCSH10068/PCSH10068-03_650-01_00-01_00.ppk=The Lost Child (3.61+!) [3.65]
PCSH10075/PCSH10075-03_670-01_00-01_01.ppk=A Certain Magical Virtual-On (3.61+!) [3.67]
PCSH10077/PCSH10077-03_650-01_00-01_04.ppk=Psychedelica of Black Butterfly (3.61+!) [3.65]
PCSH10078/PCSH10078-03_650-01_00-01_02.ppk=Unepic (English/Chinese/Korean/Japanese/Russian Ver.) (3.61+!) [3.65]
PCSH10082/PCSH10082-03_670-01_00-01_00.ppk=The Legend of Heroes Sora No Kiseki the 3rd Evolution (3.61+!) [3.67]
PCSH10089/PCSH10089-03_670-01_00-01_00.ppk=SUPER ROBOT WARS X (Chinese/Korean Ver.) (3.61+!) [3.67]
PCSH10090/PCSH10090-03_670-01_00-01_02.ppk=7'scarlet (Chinese/Korean Ver.) (3.61+!) [3.67]
PCSH10091/PCSH10091-03_670-01_00-01_02.ppk=Psychedelica of Gray Hawk (3.61+!) [3.67]
PCSH10094/PCSH10094-03_650-01_00-01_01.ppk=One More Dungeon (EN - SP - DE - FR - RU - JP - TC - SC) (3.61+!) [3.65]
PCSH10098/PCSH10098-03_670-01_00-01_01.ppk=Midnight Deluxe (English/Chinese Ver.) (3.61+!) [3.67]
PCSH10099/PCSH10099-03_680-01_00-01_02.ppk=Bullet Girls Phantasia (English/Chinese/Japanese/Korean Ver.) (3.61+!) [3.68]
PCSH10100/PCSH10100-03_670-01_00-01_00.ppk=Metal Max Xeno (3.61+!) [3.67]
PCSH10116/PCSH10116-03_670-01_00-01_01.ppk=InkSplosion (English/Chinese/Korean/Japanese Ver.) (3.61+!) [3.67]
PCSH10119/PCSH10119-03_670-01_00-01_01.ppk=36 Fragments of Midnight (English/Chinese/Korean Ver.) (3.61+!) [3.67]
PCSH10122/PCSH10122-03_680-01_00-01_00.ppk=Devious Dungeon (3.61+!) [3.68]
PCSH10124/PCSH10124-03_680-01_00-01_01.ppk=Super Destronaut DX (3.61+!) [3.68]
